0.005 	 -0.0012375 
0.01 	   -0.00245 
0.015 	 -0.0036375 
0.02 	    -0.0048 
0.025 	 -0.0059375 
0.03 	   -0.00705 
0.035 	 -0.0081375 
0.04 	    -0.0092 
0.045 	  -0.010238 
0.05 	   -0.01125 
0.055 	  -0.012237 
0.06 	    -0.0132 
0.065 	  -0.014137 
0.07 	   -0.01505 
0.075 	  -0.015938 
0.08 	    -0.0168 
0.085 	  -0.017638 
0.09 	   -0.01845 
0.095 	  -0.019238 
0.1 	      -0.02 
0.105 	  -0.020738 
0.11 	   -0.02145 
0.115 	  -0.022138 
0.12 	    -0.0228 
0.125 	  -0.023438 
0.13 	   -0.02405 
0.135 	  -0.024638 
0.14 	    -0.0252 
0.145 	  -0.025738 
0.15 	   -0.02625 
0.155 	  -0.026738 
0.16 	    -0.0272 
0.165 	  -0.027638 
0.17 	   -0.02805 
0.175 	  -0.028438 
0.18 	    -0.0288 
0.185 	  -0.029138 
0.19 	   -0.02945 
0.195 	  -0.029738 
0.2 	      -0.03 
0.205 	  -0.030238 
0.21 	   -0.03045 
0.215 	  -0.030638 
0.22 	    -0.0308 
0.225 	  -0.030938 
0.23 	   -0.03105 
0.235 	  -0.031138 
0.24 	    -0.0312 
0.245 	  -0.031238 
0.25 	   -0.03125 
0.255 	  -0.031238 
0.26 	    -0.0312 
0.265 	  -0.031137 
0.27 	   -0.03105 
0.275 	  -0.030937 
0.28 	    -0.0308 
0.285 	  -0.030637 
0.29 	   -0.03045 
0.295 	  -0.030237 
0.3 	      -0.03 
0.305 	  -0.029737 
0.31 	   -0.02945 
0.315 	  -0.029137 
0.32 	    -0.0288 
0.325 	  -0.028437 
0.33 	   -0.02805 
0.335 	  -0.027637 
0.34 	    -0.0272 
0.345 	  -0.026737 
0.35 	   -0.02625 
0.355 	  -0.025737 
0.36 	    -0.0252 
0.365 	  -0.024637 
0.37 	   -0.02405 
0.375 	  -0.023437 
0.38 	    -0.0228 
0.385 	  -0.022137 
0.39 	   -0.02145 
0.395 	  -0.020737 
0.4 	      -0.02 
0.405 	  -0.019237 
0.41 	   -0.01845 
0.415 	  -0.017637 
0.42 	    -0.0168 
0.425 	  -0.015937 
0.43 	   -0.01505 
0.435 	  -0.014137 
0.44 	    -0.0132 
0.445 	  -0.012237 
0.45 	   -0.01125 
0.455 	  -0.010237 
0.46 	    -0.0092 
0.465 	 -0.0081375 
0.47 	   -0.00705 
0.475 	 -0.0059375 
0.48 	    -0.0048 
0.485 	 -0.0036375 
0.49 	   -0.00245 
0.495 	 -0.0012375 
0.5 	 8.3267e-17 
0.505 	  0.0012625 
0.51 	    0.00255 
0.515 	  0.0038625 
0.52 	     0.0052 
0.525 	  0.0065625 
0.53 	    0.00795 
0.535 	  0.0093625 
0.54 	     0.0108 
0.545 	   0.012263 
0.55 	    0.01375 
0.555 	   0.015263 
0.56 	     0.0168 
0.565 	   0.018363 
0.57 	    0.01995 
0.575 	   0.021563 
0.58 	     0.0232 
0.585 	   0.024863 
0.59 	    0.02655 
0.595 	   0.028263 
0.6 	       0.03 
0.605 	   0.031763 
0.61 	    0.03355 
0.615 	   0.035363 
0.62 	     0.0372 
0.625 	   0.039063 
0.63 	    0.04095 
0.635 	   0.042863 
0.64 	     0.0448 
0.645 	   0.046763 
0.65 	    0.04875 
0.655 	   0.050763 
0.66 	     0.0528 
0.665 	   0.054863 
0.67 	    0.05695 
0.675 	   0.059063 
0.68 	     0.0612 
0.685 	   0.063363 
0.69 	    0.06555 
0.695 	   0.067763 
0.7 	       0.07 
0.705 	   0.072263 
0.71 	    0.07455 
0.715 	   0.076863 
0.72 	     0.0792 
0.725 	   0.081563 
0.73 	    0.08395 
0.735 	   0.086363 
0.74 	     0.0888 
0.745 	   0.091263 
0.75 	    0.09375 
0.755 	   0.096263 
0.76 	     0.0988 
0.765 	    0.10136 
0.77 	    0.10395 
0.775 	    0.10656 
0.78 	     0.1092 
0.785 	    0.11186 
0.79 	    0.11455 
0.795 	    0.11726 
0.8 	       0.12 
0.805 	    0.12276 
0.81 	    0.12555 
0.815 	    0.12836 
0.82 	     0.1312 
0.825 	    0.13406 
0.83 	    0.13695 
0.835 	    0.13986 
0.84 	     0.1428 
0.845 	    0.14576 
0.85 	    0.14875 
0.855 	    0.15176 
0.86 	     0.1548 
0.865 	    0.15786 
0.87 	    0.16095 
0.875 	    0.16406 
0.88 	     0.1672 
0.885 	    0.17036 
0.89 	    0.17355 
0.895 	    0.17676 
0.9 	       0.18 
0.905 	    0.18326 
0.91 	    0.18655 
0.915 	    0.18986 
0.92 	     0.1932 
0.925 	    0.19656 
0.93 	    0.19995 
0.935 	    0.20336 
0.94 	     0.2068 
0.945 	    0.21026 
0.95 	    0.21375 
0.955 	    0.21726 
0.96 	     0.2208 
0.965 	    0.22436 
0.97 	    0.22795 
0.975 	    0.23156 
0.98 	     0.2352 
0.985 	    0.23886 
0.99 	    0.24255 
0.995 	    0.24626 
1 	       0.25 
