\relax 
\select@language{english}
\@writefile{toc}{\select@language{english}}
\@writefile{lof}{\select@language{english}}
\@writefile{lot}{\select@language{english}}
\@writefile{toc}{\contentsline {section}{\numberline {1}Question 10, lecture 4}{1}}
\@writefile{toc}{\contentsline {section}{\numberline {2}Practical problem}{1}}
\@writefile{toc}{\contentsline {subsection}{\numberline {2.1}Problem 32}{1}}
\@writefile{toc}{\contentsline {subsection}{\numberline {2.2}Solution}{1}}
\@writefile{lof}{\contentsline {figure}{\numberline {1}{\ignorespaces The function f(x) with the minimum marked.}}{2}}
\newlabel{fig:figur}{{1}{2}}
